../../config/wikispeedia/wikispeedia.cfg
Using TensorFlow backend.
Loading paths from [/people/d3x771/datasets/wikispeedia/wikispeedia_paths-and-graph//orig/training_data_gen/easy_or_short_paths/paths_finished.easy_or_short.test.tsv]
USE_MPI = False
Number of paths = 5000
('Loading node degrees from', u'/people/d3x771/datasets/wikispeedia/wikispeedia_paths-and-graph//orig/article_degrees.tsv')
Loading node embeddings from [/people/d3x771/datasets/wikispeedia/wikispeedia_paths-and-graph//int/emb/wikeespedia.emb.p1.q1.w20.l10.e128.labeled]
Loading node categories from [/people/d3x771/datasets/wikispeedia/wikispeedia_paths-and-graph//orig/categories.tsv]
Converting paths to training data and labels ...
('Converting graph path to test seqs', 5000, 4999)
(4999, 2)
Predicting paths
('Number of actual and predicted paths', 4999, 4999)
