../../config/freebase/freebase.bilstm.2.cfg
Using TensorFlow backend.
Loading paths from [/people/d3x771/datasets/freebase//user_study_test_questions.all.txt]
USE_MPI = False
Number of paths = 355
('Loading node degrees from', u'/people/d3x771/datasets/freebase//node_degrees.txt')
Loading node embeddings from [/people/d3x771/datasets/freebase//node_embeddings.txt]
Loading node categories from [/people/d3x771/datasets/freebase//node_categories.txt]
(75043, 319345)
Converting paths to training data and labels ...
('Converting graph path to test seqs', 355, 355)
(355, 2)
Predicting paths
('Reached node with geater tahn 10K nbrs, sampling nbrs for :', 'male')
('Reached node with geater tahn 10K nbrs, sampling nbrs for :', 'united_states')
('Reached node with geater tahn 10K nbrs, sampling nbrs for :', 'united_states')
('Reached node with geater tahn 10K nbrs, sampling nbrs for :', 'male')
('Reached node with geater tahn 10K nbrs, sampling nbrs for :', 'united_states')
('Reached node with geater tahn 10K nbrs, sampling nbrs for :', 'united_states')
('Reached node with geater tahn 10K nbrs, sampling nbrs for :', 'male')
('Reached node with geater tahn 10K nbrs, sampling nbrs for :', 'united_states')
('Reached node with geater tahn 10K nbrs, sampling nbrs for :', 'united_states')
('Reached node with geater tahn 10K nbrs, sampling nbrs for :', 'male')
('Reached node with geater tahn 10K nbrs, sampling nbrs for :', 'united_states')
('Reached node with geater tahn 10K nbrs, sampling nbrs for :', 'united_states')
('Reached node with geater tahn 10K nbrs, sampling nbrs for :', 'united_states')
('Reached node with geater tahn 10K nbrs, sampling nbrs for :', 'male')
('Reached node with geater tahn 10K nbrs, sampling nbrs for :', 'united_states')
('Reached node with geater tahn 10K nbrs, sampling nbrs for :', 'male')
('Reached node with geater tahn 10K nbrs, sampling nbrs for :', 'male')
('Reached node with geater tahn 10K nbrs, sampling nbrs for :', 'male')
('Reached node with geater tahn 10K nbrs, sampling nbrs for :', 'male')
('Reached node with geater tahn 10K nbrs, sampling nbrs for :', 'united_states')
('Reached node with geater tahn 10K nbrs, sampling nbrs for :', 'united_states')
('Reached node with geater tahn 10K nbrs, sampling nbrs for :', 'male')
('Reached node with geater tahn 10K nbrs, sampling nbrs for :', 'male')
('Reached node with geater tahn 10K nbrs, sampling nbrs for :', 'male')
('Reached node with geater tahn 10K nbrs, sampling nbrs for :', 'united_states')
('Reached node with geater tahn 10K nbrs, sampling nbrs for :', 'male')
('Reached node with geater tahn 10K nbrs, sampling nbrs for :', 'male')
('Reached node with geater tahn 10K nbrs, sampling nbrs for :', 'united_states')
('Reached node with geater tahn 10K nbrs, sampling nbrs for :', 'male')
('Reached node with geater tahn 10K nbrs, sampling nbrs for :', 'male')
('Reached node with geater tahn 10K nbrs, sampling nbrs for :', 'male')
('Reached node with geater tahn 10K nbrs, sampling nbrs for :', 'male')
('Reached node with geater tahn 10K nbrs, sampling nbrs for :', 'united_states')
('Reached node with geater tahn 10K nbrs, sampling nbrs for :', 'male')
('Reached node with geater tahn 10K nbrs, sampling nbrs for :', 'united_states')
('Reached node with geater tahn 10K nbrs, sampling nbrs for :', 'united_states')
('Reached node with geater tahn 10K nbrs, sampling nbrs for :', 'male')
('Reached node with geater tahn 10K nbrs, sampling nbrs for :', 'male')
('Reached node with geater tahn 10K nbrs, sampling nbrs for :', 'male')
('Reached node with geater tahn 10K nbrs, sampling nbrs for :', 'male')
('Reached node with geater tahn 10K nbrs, sampling nbrs for :', 'male')
('Reached node with geater tahn 10K nbrs, sampling nbrs for :', 'united_states')
('Reached node with geater tahn 10K nbrs, sampling nbrs for :', 'male')
('Reached node with geater tahn 10K nbrs, sampling nbrs for :', 'united_states')
('Reached node with geater tahn 10K nbrs, sampling nbrs for :', 'united_states')
('Reached node with geater tahn 10K nbrs, sampling nbrs for :', 'male')
('Reached node with geater tahn 10K nbrs, sampling nbrs for :', 'united_states')
('Reached node with geater tahn 10K nbrs, sampling nbrs for :', 'male')
('Reached node with geater tahn 10K nbrs, sampling nbrs for :', 'united_states')
('Reached node with geater tahn 10K nbrs, sampling nbrs for :', 'male')
('Reached node with geater tahn 10K nbrs, sampling nbrs for :', 'male')
('Reached node with geater tahn 10K nbrs, sampling nbrs for :', 'male')
('Reached node with geater tahn 10K nbrs, sampling nbrs for :', 'male')
('Reached node with geater tahn 10K nbrs, sampling nbrs for :', 'male')
('Reached node with geater tahn 10K nbrs, sampling nbrs for :', 'united_states')
('Reached node with geater tahn 10K nbrs, sampling nbrs for :', 'united_states')
('Reached node with geater tahn 10K nbrs, sampling nbrs for :', 'united_states')
('Reached node with geater tahn 10K nbrs, sampling nbrs for :', 'united_states')
('Reached node with geater tahn 10K nbrs, sampling nbrs for :', 'united_states')
('Reached node with geater tahn 10K nbrs, sampling nbrs for :', 'male')
('Reached node with geater tahn 10K nbrs, sampling nbrs for :', 'male')
('Reached node with geater tahn 10K nbrs, sampling nbrs for :', 'male')
('Reached node with geater tahn 10K nbrs, sampling nbrs for :', 'male')
('Reached node with geater tahn 10K nbrs, sampling nbrs for :', 'united_states')
('Reached node with geater tahn 10K nbrs, sampling nbrs for :', 'male')
('Reached node with geater tahn 10K nbrs, sampling nbrs for :', 'united_states')
('Reached node with geater tahn 10K nbrs, sampling nbrs for :', 'united_states')
('Reached node with geater tahn 10K nbrs, sampling nbrs for :', 'united_states')
('Reached node with geater tahn 10K nbrs, sampling nbrs for :', 'male')
('Reached node with geater tahn 10K nbrs, sampling nbrs for :', 'male')
('Reached node with geater tahn 10K nbrs, sampling nbrs for :', 'male')
('Reached node with geater tahn 10K nbrs, sampling nbrs for :', 'male')
('Reached node with geater tahn 10K nbrs, sampling nbrs for :', 'male')
('Reached node with geater tahn 10K nbrs, sampling nbrs for :', 'united_states')
('Reached node with geater tahn 10K nbrs, sampling nbrs for :', 'united_states')
('Reached node with geater tahn 10K nbrs, sampling nbrs for :', 'male')
('Reached node with geater tahn 10K nbrs, sampling nbrs for :', 'male')
('Reached node with geater tahn 10K nbrs, sampling nbrs for :', 'united_states')
('Reached node with geater tahn 10K nbrs, sampling nbrs for :', 'male')
('Reached node with geater tahn 10K nbrs, sampling nbrs for :', 'male')
('Reached node with geater tahn 10K nbrs, sampling nbrs for :', 'male')
('Reached node with geater tahn 10K nbrs, sampling nbrs for :', 'united_states')
('Reached node with geater tahn 10K nbrs, sampling nbrs for :', 'male')
('Reached node with geater tahn 10K nbrs, sampling nbrs for :', 'united_states')
('Reached node with geater tahn 10K nbrs, sampling nbrs for :', 'male')
('Reached node with geater tahn 10K nbrs, sampling nbrs for :', 'male')
('Reached node with geater tahn 10K nbrs, sampling nbrs for :', 'male')
('Reached node with geater tahn 10K nbrs, sampling nbrs for :', 'united_states')
('Reached node with geater tahn 10K nbrs, sampling nbrs for :', 'male')
('Reached node with geater tahn 10K nbrs, sampling nbrs for :', 'male')
('Reached node with geater tahn 10K nbrs, sampling nbrs for :', 'male')
('Reached node with geater tahn 10K nbrs, sampling nbrs for :', 'united_states')
('Reached node with geater tahn 10K nbrs, sampling nbrs for :', 'male')
('Reached node with geater tahn 10K nbrs, sampling nbrs for :', 'male')
('Reached node with geater tahn 10K nbrs, sampling nbrs for :', 'male')
('Reached node with geater tahn 10K nbrs, sampling nbrs for :', 'male')
('Reached node with geater tahn 10K nbrs, sampling nbrs for :', 'male')
('Reached node with geater tahn 10K nbrs, sampling nbrs for :', 'united_states')
('Reached node with geater tahn 10K nbrs, sampling nbrs for :', 'male')
('Reached node with geater tahn 10K nbrs, sampling nbrs for :', 'male')
('Reached node with geater tahn 10K nbrs, sampling nbrs for :', 'united_states')
('Reached node with geater tahn 10K nbrs, sampling nbrs for :', 'male')
('Reached node with geater tahn 10K nbrs, sampling nbrs for :', 'male')
('Reached node with geater tahn 10K nbrs, sampling nbrs for :', 'male')
('Reached node with geater tahn 10K nbrs, sampling nbrs for :', 'united_states')
('Reached node with geater tahn 10K nbrs, sampling nbrs for :', 'male')
('Reached node with geater tahn 10K nbrs, sampling nbrs for :', 'male')
('Reached node with geater tahn 10K nbrs, sampling nbrs for :', 'male')
('Reached node with geater tahn 10K nbrs, sampling nbrs for :', 'united_states')
('Reached node with geater tahn 10K nbrs, sampling nbrs for :', 'united_states')
('Reached node with geater tahn 10K nbrs, sampling nbrs for :', 'united_states')
('Reached node with geater tahn 10K nbrs, sampling nbrs for :', 'united_states')
('Reached node with geater tahn 10K nbrs, sampling nbrs for :', 'male')
('Reached node with geater tahn 10K nbrs, sampling nbrs for :', 'united_states')
('Reached node with geater tahn 10K nbrs, sampling nbrs for :', 'united_states')
('Reached node with geater tahn 10K nbrs, sampling nbrs for :', 'male')
('Reached node with geater tahn 10K nbrs, sampling nbrs for :', 'male')
('Reached node with geater tahn 10K nbrs, sampling nbrs for :', 'united_states')
('Reached node with geater tahn 10K nbrs, sampling nbrs for :', 'united_states')
('Reached node with geater tahn 10K nbrs, sampling nbrs for :', 'united_states')
('Reached node with geater tahn 10K nbrs, sampling nbrs for :', 'male')
('Reached node with geater tahn 10K nbrs, sampling nbrs for :', 'united_states')
('Reached node with geater tahn 10K nbrs, sampling nbrs for :', 'male')
('Reached node with geater tahn 10K nbrs, sampling nbrs for :', 'male')
('Reached node with geater tahn 10K nbrs, sampling nbrs for :', 'male')
('Reached node with geater tahn 10K nbrs, sampling nbrs for :', 'male')
('Reached node with geater tahn 10K nbrs, sampling nbrs for :', 'male')
('Reached node with geater tahn 10K nbrs, sampling nbrs for :', 'united_states')
('Reached node with geater tahn 10K nbrs, sampling nbrs for :', 'male')
('Reached node with geater tahn 10K nbrs, sampling nbrs for :', 'male')
('Reached node with geater tahn 10K nbrs, sampling nbrs for :', 'united_states')
('Reached node with geater tahn 10K nbrs, sampling nbrs for :', 'male')
('Reached node with geater tahn 10K nbrs, sampling nbrs for :', 'united_states')
('Reached node with geater tahn 10K nbrs, sampling nbrs for :', 'male')
('Reached node with geater tahn 10K nbrs, sampling nbrs for :', 'male')
('Reached node with geater tahn 10K nbrs, sampling nbrs for :', 'male')
('Reached node with geater tahn 10K nbrs, sampling nbrs for :', 'male')
('Reached node with geater tahn 10K nbrs, sampling nbrs for :', 'united_states')
('Reached node with geater tahn 10K nbrs, sampling nbrs for :', 'male')
('Reached node with geater tahn 10K nbrs, sampling nbrs for :', 'male')
('Reached node with geater tahn 10K nbrs, sampling nbrs for :', 'united_states')
('Reached node with geater tahn 10K nbrs, sampling nbrs for :', 'male')
('Reached node with geater tahn 10K nbrs, sampling nbrs for :', 'united_states')
('Reached node with geater tahn 10K nbrs, sampling nbrs for :', 'united_states')
('Reached node with geater tahn 10K nbrs, sampling nbrs for :', 'united_states')
('Reached node with geater tahn 10K nbrs, sampling nbrs for :', 'male')
('Reached node with geater tahn 10K nbrs, sampling nbrs for :', 'united_states')
('Reached node with geater tahn 10K nbrs, sampling nbrs for :', 'united_states')
('Reached node with geater tahn 10K nbrs, sampling nbrs for :', 'male')
('Reached node with geater tahn 10K nbrs, sampling nbrs for :', 'male')
('Reached node with geater tahn 10K nbrs, sampling nbrs for :', 'male')
('Reached node with geater tahn 10K nbrs, sampling nbrs for :', 'male')
('Reached node with geater tahn 10K nbrs, sampling nbrs for :', 'united_states')
('Reached node with geater tahn 10K nbrs, sampling nbrs for :', 'united_states')
('Reached node with geater tahn 10K nbrs, sampling nbrs for :', 'male')
('Reached node with geater tahn 10K nbrs, sampling nbrs for :', 'male')
('Reached node with geater tahn 10K nbrs, sampling nbrs for :', 'united_states')
('Reached node with geater tahn 10K nbrs, sampling nbrs for :', 'male')
('Reached node with geater tahn 10K nbrs, sampling nbrs for :', 'male')
('Reached node with geater tahn 10K nbrs, sampling nbrs for :', 'male')
('Reached node with geater tahn 10K nbrs, sampling nbrs for :', 'male')
('Reached node with geater tahn 10K nbrs, sampling nbrs for :', 'united_states')
('Reached node with geater tahn 10K nbrs, sampling nbrs for :', 'united_states')
('Reached node with geater tahn 10K nbrs, sampling nbrs for :', 'united_states')
('Reached node with geater tahn 10K nbrs, sampling nbrs for :', 'united_states')
('Reached node with geater tahn 10K nbrs, sampling nbrs for :', 'united_states')
('Reached node with geater tahn 10K nbrs, sampling nbrs for :', 'united_states')
('Reached node with geater tahn 10K nbrs, sampling nbrs for :', 'male')
('Reached node with geater tahn 10K nbrs, sampling nbrs for :', 'male')
('Reached node with geater tahn 10K nbrs, sampling nbrs for :', 'united_states')
('Reached node with geater tahn 10K nbrs, sampling nbrs for :', 'united_states')
('Reached node with geater tahn 10K nbrs, sampling nbrs for :', 'male')
('Reached node with geater tahn 10K nbrs, sampling nbrs for :', 'male')
('Reached node with geater tahn 10K nbrs, sampling nbrs for :', 'male')
('Reached node with geater tahn 10K nbrs, sampling nbrs for :', 'united_states')
('Reached node with geater tahn 10K nbrs, sampling nbrs for :', 'male')
('Reached node with geater tahn 10K nbrs, sampling nbrs for :', 'united_states')
('Reached node with geater tahn 10K nbrs, sampling nbrs for :', 'united_states')
('Reached node with geater tahn 10K nbrs, sampling nbrs for :', 'male')
('Reached node with geater tahn 10K nbrs, sampling nbrs for :', 'male')
('Reached node with geater tahn 10K nbrs, sampling nbrs for :', 'united_states')
('Reached node with geater tahn 10K nbrs, sampling nbrs for :', 'male')
('Reached node with geater tahn 10K nbrs, sampling nbrs for :', 'male')
('Reached node with geater tahn 10K nbrs, sampling nbrs for :', 'united_states')
('Reached node with geater tahn 10K nbrs, sampling nbrs for :', 'united_states')
('Reached node with geater tahn 10K nbrs, sampling nbrs for :', 'united_states')
('Reached node with geater tahn 10K nbrs, sampling nbrs for :', 'united_states')
('Reached node with geater tahn 10K nbrs, sampling nbrs for :', 'united_states')
('Reached node with geater tahn 10K nbrs, sampling nbrs for :', 'male')
('Reached node with geater tahn 10K nbrs, sampling nbrs for :', 'united_states')
('Reached node with geater tahn 10K nbrs, sampling nbrs for :', 'male')
('Reached node with geater tahn 10K nbrs, sampling nbrs for :', 'male')
('Reached node with geater tahn 10K nbrs, sampling nbrs for :', 'male')
('Reached node with geater tahn 10K nbrs, sampling nbrs for :', 'male')
('Reached node with geater tahn 10K nbrs, sampling nbrs for :', 'male')
('Reached node with geater tahn 10K nbrs, sampling nbrs for :', 'male')
('Reached node with geater tahn 10K nbrs, sampling nbrs for :', 'united_states')
('Reached node with geater tahn 10K nbrs, sampling nbrs for :', 'male')
('Reached node with geater tahn 10K nbrs, sampling nbrs for :', 'united_states')
('Reached node with geater tahn 10K nbrs, sampling nbrs for :', 'united_states')
('Reached node with geater tahn 10K nbrs, sampling nbrs for :', 'united_states')
('Reached node with geater tahn 10K nbrs, sampling nbrs for :', 'male')
('Reached node with geater tahn 10K nbrs, sampling nbrs for :', 'male')
('Reached node with geater tahn 10K nbrs, sampling nbrs for :', 'united_states')
('Reached node with geater tahn 10K nbrs, sampling nbrs for :', 'male')
('Reached node with geater tahn 10K nbrs, sampling nbrs for :', 'male')
('Reached node with geater tahn 10K nbrs, sampling nbrs for :', 'male')
('Reached node with geater tahn 10K nbrs, sampling nbrs for :', 'male')
('Reached node with geater tahn 10K nbrs, sampling nbrs for :', 'male')
('Reached node with geater tahn 10K nbrs, sampling nbrs for :', 'male')
('Reached node with geater tahn 10K nbrs, sampling nbrs for :', 'male')
('Reached node with geater tahn 10K nbrs, sampling nbrs for :', 'male')
('Reached node with geater tahn 10K nbrs, sampling nbrs for :', 'united_states')
('Reached node with geater tahn 10K nbrs, sampling nbrs for :', 'united_states')
('Reached node with geater tahn 10K nbrs, sampling nbrs for :', 'male')
('Reached node with geater tahn 10K nbrs, sampling nbrs for :', 'united_states')
('Reached node with geater tahn 10K nbrs, sampling nbrs for :', 'male')
('Reached node with geater tahn 10K nbrs, sampling nbrs for :', 'united_states')
('Reached node with geater tahn 10K nbrs, sampling nbrs for :', 'male')
('Reached node with geater tahn 10K nbrs, sampling nbrs for :', 'male')
('Reached node with geater tahn 10K nbrs, sampling nbrs for :', 'male')
('Reached node with geater tahn 10K nbrs, sampling nbrs for :', 'male')
('Reached node with geater tahn 10K nbrs, sampling nbrs for :', 'united_states')
('Reached node with geater tahn 10K nbrs, sampling nbrs for :', 'united_states')
('Reached node with geater tahn 10K nbrs, sampling nbrs for :', 'male')
('Reached node with geater tahn 10K nbrs, sampling nbrs for :', 'united_states')
('Reached node with geater tahn 10K nbrs, sampling nbrs for :', 'male')
('Reached node with geater tahn 10K nbrs, sampling nbrs for :', 'male')
('Reached node with geater tahn 10K nbrs, sampling nbrs for :', 'united_states')
('Reached node with geater tahn 10K nbrs, sampling nbrs for :', 'male')
('Reached node with geater tahn 10K nbrs, sampling nbrs for :', 'male')
('Reached node with geater tahn 10K nbrs, sampling nbrs for :', 'male')
('Reached node with geater tahn 10K nbrs, sampling nbrs for :', 'united_states')
('Reached node with geater tahn 10K nbrs, sampling nbrs for :', 'united_states')
('Reached node with geater tahn 10K nbrs, sampling nbrs for :', 'male')
('Reached node with geater tahn 10K nbrs, sampling nbrs for :', 'united_states')
('Reached node with geater tahn 10K nbrs, sampling nbrs for :', 'united_states')
('Reached node with geater tahn 10K nbrs, sampling nbrs for :', 'united_states')
('Reached node with geater tahn 10K nbrs, sampling nbrs for :', 'united_states')
('Reached node with geater tahn 10K nbrs, sampling nbrs for :', 'male')
('Reached node with geater tahn 10K nbrs, sampling nbrs for :', 'united_states')
('Reached node with geater tahn 10K nbrs, sampling nbrs for :', 'united_states')
('Reached node with geater tahn 10K nbrs, sampling nbrs for :', 'united_states')
('Reached node with geater tahn 10K nbrs, sampling nbrs for :', 'male')
('Reached node with geater tahn 10K nbrs, sampling nbrs for :', 'united_states')
('Reached node with geater tahn 10K nbrs, sampling nbrs for :', 'united_states')
('Reached node with geater tahn 10K nbrs, sampling nbrs for :', 'male')
('Reached node with geater tahn 10K nbrs, sampling nbrs for :', 'united_states')
('Reached node with geater tahn 10K nbrs, sampling nbrs for :', 'male')
('Reached node with geater tahn 10K nbrs, sampling nbrs for :', 'united_states')
('Reached node with geater tahn 10K nbrs, sampling nbrs for :', 'united_states')
('Reached node with geater tahn 10K nbrs, sampling nbrs for :', 'male')
('Reached node with geater tahn 10K nbrs, sampling nbrs for :', 'male')
('Reached node with geater tahn 10K nbrs, sampling nbrs for :', 'united_states')
('Reached node with geater tahn 10K nbrs, sampling nbrs for :', 'male')
('Reached node with geater tahn 10K nbrs, sampling nbrs for :', 'male')
('Reached node with geater tahn 10K nbrs, sampling nbrs for :', 'male')
('Reached node with geater tahn 10K nbrs, sampling nbrs for :', 'male')
('Reached node with geater tahn 10K nbrs, sampling nbrs for :', 'male')
('Reached node with geater tahn 10K nbrs, sampling nbrs for :', 'male')
('Reached node with geater tahn 10K nbrs, sampling nbrs for :', 'united_states')
('Reached node with geater tahn 10K nbrs, sampling nbrs for :', 'male')
('Reached node with geater tahn 10K nbrs, sampling nbrs for :', 'united_states')
('Reached node with geater tahn 10K nbrs, sampling nbrs for :', 'male')
('Reached node with geater tahn 10K nbrs, sampling nbrs for :', 'male')
('Reached node with geater tahn 10K nbrs, sampling nbrs for :', 'united_states')
('Reached node with geater tahn 10K nbrs, sampling nbrs for :', 'male')
('Reached node with geater tahn 10K nbrs, sampling nbrs for :', 'united_states')
('Reached node with geater tahn 10K nbrs, sampling nbrs for :', 'male')
('Reached node with geater tahn 10K nbrs, sampling nbrs for :', 'male')
('Reached node with geater tahn 10K nbrs, sampling nbrs for :', 'male')
('Reached node with geater tahn 10K nbrs, sampling nbrs for :', 'male')
('Reached node with geater tahn 10K nbrs, sampling nbrs for :', 'united_states')
('Reached node with geater tahn 10K nbrs, sampling nbrs for :', 'male')
('Reached node with geater tahn 10K nbrs, sampling nbrs for :', 'male')
('Reached node with geater tahn 10K nbrs, sampling nbrs for :', 'male')
('Reached node with geater tahn 10K nbrs, sampling nbrs for :', 'united_states')
('Reached node with geater tahn 10K nbrs, sampling nbrs for :', 'male')
('Reached node with geater tahn 10K nbrs, sampling nbrs for :', 'male')
('Reached node with geater tahn 10K nbrs, sampling nbrs for :', 'male')
('Reached node with geater tahn 10K nbrs, sampling nbrs for :', 'male')
('Reached node with geater tahn 10K nbrs, sampling nbrs for :', 'united_states')
('Reached node with geater tahn 10K nbrs, sampling nbrs for :', 'male')
('Reached node with geater tahn 10K nbrs, sampling nbrs for :', 'male')
('Reached node with geater tahn 10K nbrs, sampling nbrs for :', 'united_states')
('Reached node with geater tahn 10K nbrs, sampling nbrs for :', 'male')
('Reached node with geater tahn 10K nbrs, sampling nbrs for :', 'male')
('Reached node with geater tahn 10K nbrs, sampling nbrs for :', 'united_states')
('Reached node with geater tahn 10K nbrs, sampling nbrs for :', 'male')
('Reached node with geater tahn 10K nbrs, sampling nbrs for :', 'male')
('Reached node with geater tahn 10K nbrs, sampling nbrs for :', 'male')
('Reached node with geater tahn 10K nbrs, sampling nbrs for :', 'united_states')
('Reached node with geater tahn 10K nbrs, sampling nbrs for :', 'male')
('Reached node with geater tahn 10K nbrs, sampling nbrs for :', 'male')
('Reached node with geater tahn 10K nbrs, sampling nbrs for :', 'male')
('Reached node with geater tahn 10K nbrs, sampling nbrs for :', 'united_states')
('Reached node with geater tahn 10K nbrs, sampling nbrs for :', 'united_states')
('Reached node with geater tahn 10K nbrs, sampling nbrs for :', 'male')
('Reached node with geater tahn 10K nbrs, sampling nbrs for :', 'male')
('Reached node with geater tahn 10K nbrs, sampling nbrs for :', 'united_states')
('Reached node with geater tahn 10K nbrs, sampling nbrs for :', 'male')
('Reached node with geater tahn 10K nbrs, sampling nbrs for :', 'male')
('Reached node with geater tahn 10K nbrs, sampling nbrs for :', 'male')
('Reached node with geater tahn 10K nbrs, sampling nbrs for :', 'male')
('Reached node with geater tahn 10K nbrs, sampling nbrs for :', 'united_states')
('Reached node with geater tahn 10K nbrs, sampling nbrs for :', 'male')
('Reached node with geater tahn 10K nbrs, sampling nbrs for :', 'male')
('Reached node with geater tahn 10K nbrs, sampling nbrs for :', 'united_states')
('Reached node with geater tahn 10K nbrs, sampling nbrs for :', 'male')
('Reached node with geater tahn 10K nbrs, sampling nbrs for :', 'united_states')
('Reached node with geater tahn 10K nbrs, sampling nbrs for :', 'male')
('Reached node with geater tahn 10K nbrs, sampling nbrs for :', 'united_states')
('Reached node with geater tahn 10K nbrs, sampling nbrs for :', 'united_states')
('Reached node with geater tahn 10K nbrs, sampling nbrs for :', 'male')
('Reached node with geater tahn 10K nbrs, sampling nbrs for :', 'united_states')
('Reached node with geater tahn 10K nbrs, sampling nbrs for :', 'united_states')
('Reached node with geater tahn 10K nbrs, sampling nbrs for :', 'male')
('Reached node with geater tahn 10K nbrs, sampling nbrs for :', 'male')
('Reached node with geater tahn 10K nbrs, sampling nbrs for :', 'male')
('Reached node with geater tahn 10K nbrs, sampling nbrs for :', 'united_states')
('Reached node with geater tahn 10K nbrs, sampling nbrs for :', 'united_states')
('Reached node with geater tahn 10K nbrs, sampling nbrs for :', 'male')
('Reached node with geater tahn 10K nbrs, sampling nbrs for :', 'united_states')
('Reached node with geater tahn 10K nbrs, sampling nbrs for :', 'united_states')
('Reached node with geater tahn 10K nbrs, sampling nbrs for :', 'male')
('Reached node with geater tahn 10K nbrs, sampling nbrs for :', 'united_states')
('Reached node with geater tahn 10K nbrs, sampling nbrs for :', 'male')
('Reached node with geater tahn 10K nbrs, sampling nbrs for :', 'united_states')
('Reached node with geater tahn 10K nbrs, sampling nbrs for :', 'united_states')
('Reached node with geater tahn 10K nbrs, sampling nbrs for :', 'united_states')
('Reached node with geater tahn 10K nbrs, sampling nbrs for :', 'male')
('Reached node with geater tahn 10K nbrs, sampling nbrs for :', 'united_states')
('Reached node with geater tahn 10K nbrs, sampling nbrs for :', 'male')
('Reached node with geater tahn 10K nbrs, sampling nbrs for :', 'united_states')
('Reached node with geater tahn 10K nbrs, sampling nbrs for :', 'united_states')
('Reached node with geater tahn 10K nbrs, sampling nbrs for :', 'united_states')
('Reached node with geater tahn 10K nbrs, sampling nbrs for :', 'male')
('Reached node with geater tahn 10K nbrs, sampling nbrs for :', 'united_states')
('Reached node with geater tahn 10K nbrs, sampling nbrs for :', 'male')
('Reached node with geater tahn 10K nbrs, sampling nbrs for :', 'united_states')
('Reached node with geater tahn 10K nbrs, sampling nbrs for :', 'male')
('Reached node with geater tahn 10K nbrs, sampling nbrs for :', 'male')
('Reached node with geater tahn 10K nbrs, sampling nbrs for :', 'united_states')
('Reached node with geater tahn 10K nbrs, sampling nbrs for :', 'male')
('Reached node with geater tahn 10K nbrs, sampling nbrs for :', 'male')
('Reached node with geater tahn 10K nbrs, sampling nbrs for :', 'male')
('Reached node with geater tahn 10K nbrs, sampling nbrs for :', 'male')
('Reached node with geater tahn 10K nbrs, sampling nbrs for :', 'male')
('Reached node with geater tahn 10K nbrs, sampling nbrs for :', 'male')
('Reached node with geater tahn 10K nbrs, sampling nbrs for :', 'united_states')
('Reached node with geater tahn 10K nbrs, sampling nbrs for :', 'male')
('Reached node with geater tahn 10K nbrs, sampling nbrs for :', 'united_states')
('Reached node with geater tahn 10K nbrs, sampling nbrs for :', 'male')
('Reached node with geater tahn 10K nbrs, sampling nbrs for :', 'male')
('Reached node with geater tahn 10K nbrs, sampling nbrs for :', 'male')
('Reached node with geater tahn 10K nbrs, sampling nbrs for :', 'united_states')
('Reached node with geater tahn 10K nbrs, sampling nbrs for :', 'male')
('Reached node with geater tahn 10K nbrs, sampling nbrs for :', 'male')
('Reached node with geater tahn 10K nbrs, sampling nbrs for :', 'male')
('Reached node with geater tahn 10K nbrs, sampling nbrs for :', 'united_states')
('Reached node with geater tahn 10K nbrs, sampling nbrs for :', 'male')
('Reached node with geater tahn 10K nbrs, sampling nbrs for :', 'male')
('Reached node with geater tahn 10K nbrs, sampling nbrs for :', 'male')
('Reached node with geater tahn 10K nbrs, sampling nbrs for :', 'united_states')
('Reached node with geater tahn 10K nbrs, sampling nbrs for :', 'united_states')
('Reached node with geater tahn 10K nbrs, sampling nbrs for :', 'male')
('Reached node with geater tahn 10K nbrs, sampling nbrs for :', 'male')
('Reached node with geater tahn 10K nbrs, sampling nbrs for :', 'united_states')
('Reached node with geater tahn 10K nbrs, sampling nbrs for :', 'united_states')
('Reached node with geater tahn 10K nbrs, sampling nbrs for :', 'male')
('Reached node with geater tahn 10K nbrs, sampling nbrs for :', 'male')
('Reached node with geater tahn 10K nbrs, sampling nbrs for :', 'united_states')
('Reached node with geater tahn 10K nbrs, sampling nbrs for :', 'united_states')
('Reached node with geater tahn 10K nbrs, sampling nbrs for :', 'male')
('Reached node with geater tahn 10K nbrs, sampling nbrs for :', 'united_states')
('Reached node with geater tahn 10K nbrs, sampling nbrs for :', 'male')
('Reached node with geater tahn 10K nbrs, sampling nbrs for :', 'male')
('Reached node with geater tahn 10K nbrs, sampling nbrs for :', 'male')
('Reached node with geater tahn 10K nbrs, sampling nbrs for :', 'male')
('Reached node with geater tahn 10K nbrs, sampling nbrs for :', 'united_states')
('Reached node with geater tahn 10K nbrs, sampling nbrs for :', 'male')
('Reached node with geater tahn 10K nbrs, sampling nbrs for :', 'male')
('Reached node with geater tahn 10K nbrs, sampling nbrs for :', 'united_states')
('Reached node with geater tahn 10K nbrs, sampling nbrs for :', 'male')
('Reached node with geater tahn 10K nbrs, sampling nbrs for :', 'united_states')
('Reached node with geater tahn 10K nbrs, sampling nbrs for :', 'united_states')
('Reached node with geater tahn 10K nbrs, sampling nbrs for :', 'male')
('Reached node with geater tahn 10K nbrs, sampling nbrs for :', 'united_states')
('Reached node with geater tahn 10K nbrs, sampling nbrs for :', 'united_states')
('Reached node with geater tahn 10K nbrs, sampling nbrs for :', 'united_states')
('Reached node with geater tahn 10K nbrs, sampling nbrs for :', 'male')
('Reached node with geater tahn 10K nbrs, sampling nbrs for :', 'male')
('Reached node with geater tahn 10K nbrs, sampling nbrs for :', 'united_states')
('Reached node with geater tahn 10K nbrs, sampling nbrs for :', 'male')
('Reached node with geater tahn 10K nbrs, sampling nbrs for :', 'male')
('Reached node with geater tahn 10K nbrs, sampling nbrs for :', 'male')
('Reached node with geater tahn 10K nbrs, sampling nbrs for :', 'united_states')
('Reached node with geater tahn 10K nbrs, sampling nbrs for :', 'male')
('Reached node with geater tahn 10K nbrs, sampling nbrs for :', 'male')
('Reached node with geater tahn 10K nbrs, sampling nbrs for :', 'male')
('Reached node with geater tahn 10K nbrs, sampling nbrs for :', 'united_states')
('Reached node with geater tahn 10K nbrs, sampling nbrs for :', 'male')
('Reached node with geater tahn 10K nbrs, sampling nbrs for :', 'united_states')
('Reached node with geater tahn 10K nbrs, sampling nbrs for :', 'male')
('Reached node with geater tahn 10K nbrs, sampling nbrs for :', 'male')
('Reached node with geater tahn 10K nbrs, sampling nbrs for :', 'united_states')
('Reached node with geater tahn 10K nbrs, sampling nbrs for :', 'male')
('Reached node with geater tahn 10K nbrs, sampling nbrs for :', 'male')
('Reached node with geater tahn 10K nbrs, sampling nbrs for :', 'male')
('Reached node with geater tahn 10K nbrs, sampling nbrs for :', 'male')
('Reached node with geater tahn 10K nbrs, sampling nbrs for :', 'united_states')
('Reached node with geater tahn 10K nbrs, sampling nbrs for :', 'male')
('Reached node with geater tahn 10K nbrs, sampling nbrs for :', 'male')
('Reached node with geater tahn 10K nbrs, sampling nbrs for :', 'male')
('Reached node with geater tahn 10K nbrs, sampling nbrs for :', 'male')
('Reached node with geater tahn 10K nbrs, sampling nbrs for :', 'male')
('Reached node with geater tahn 10K nbrs, sampling nbrs for :', 'united_states')
('Reached node with geater tahn 10K nbrs, sampling nbrs for :', 'united_states')
('Reached node with geater tahn 10K nbrs, sampling nbrs for :', 'united_states')
('Reached node with geater tahn 10K nbrs, sampling nbrs for :', 'male')
('Reached node with geater tahn 10K nbrs, sampling nbrs for :', 'male')
('Reached node with geater tahn 10K nbrs, sampling nbrs for :', 'male')
('Reached node with geater tahn 10K nbrs, sampling nbrs for :', 'united_states')
('Reached node with geater tahn 10K nbrs, sampling nbrs for :', 'male')
('Reached node with geater tahn 10K nbrs, sampling nbrs for :', 'united_states')
('Reached node with geater tahn 10K nbrs, sampling nbrs for :', 'united_states')
('Reached node with geater tahn 10K nbrs, sampling nbrs for :', 'united_states')
('Reached node with geater tahn 10K nbrs, sampling nbrs for :', 'male')
('Reached node with geater tahn 10K nbrs, sampling nbrs for :', 'united_states')
('Reached node with geater tahn 10K nbrs, sampling nbrs for :', 'united_states')
('Reached node with geater tahn 10K nbrs, sampling nbrs for :', 'united_states')
('Reached node with geater tahn 10K nbrs, sampling nbrs for :', 'male')
('Reached node with geater tahn 10K nbrs, sampling nbrs for :', 'male')
('Reached node with geater tahn 10K nbrs, sampling nbrs for :', 'male')
('Reached node with geater tahn 10K nbrs, sampling nbrs for :', 'male')
('Reached node with geater tahn 10K nbrs, sampling nbrs for :', 'male')
('Reached node with geater tahn 10K nbrs, sampling nbrs for :', 'male')
('Reached node with geater tahn 10K nbrs, sampling nbrs for :', 'male')
('Reached node with geater tahn 10K nbrs, sampling nbrs for :', 'male')
('Reached node with geater tahn 10K nbrs, sampling nbrs for :', 'united_states')
('Reached node with geater tahn 10K nbrs, sampling nbrs for :', 'male')
('Reached node with geater tahn 10K nbrs, sampling nbrs for :', 'united_states')
('Reached node with geater tahn 10K nbrs, sampling nbrs for :', 'united_states')
('Reached node with geater tahn 10K nbrs, sampling nbrs for :', 'male')
('Reached node with geater tahn 10K nbrs, sampling nbrs for :', 'male')
('Reached node with geater tahn 10K nbrs, sampling nbrs for :', 'united_states')
('Reached node with geater tahn 10K nbrs, sampling nbrs for :', 'male')
('Reached node with geater tahn 10K nbrs, sampling nbrs for :', 'male')
('Reached node with geater tahn 10K nbrs, sampling nbrs for :', 'male')
('Reached node with geater tahn 10K nbrs, sampling nbrs for :', 'male')
('Reached node with geater tahn 10K nbrs, sampling nbrs for :', 'male')
('Reached node with geater tahn 10K nbrs, sampling nbrs for :', 'united_states')
('Reached node with geater tahn 10K nbrs, sampling nbrs for :', 'male')
('Reached node with geater tahn 10K nbrs, sampling nbrs for :', 'male')
('Reached node with geater tahn 10K nbrs, sampling nbrs for :', 'male')
('Reached node with geater tahn 10K nbrs, sampling nbrs for :', 'male')
('Reached node with geater tahn 10K nbrs, sampling nbrs for :', 'male')
('Reached node with geater tahn 10K nbrs, sampling nbrs for :', 'male')
('Reached node with geater tahn 10K nbrs, sampling nbrs for :', 'united_states')
('Reached node with geater tahn 10K nbrs, sampling nbrs for :', 'united_states')
('Reached node with geater tahn 10K nbrs, sampling nbrs for :', 'male')
('Reached node with geater tahn 10K nbrs, sampling nbrs for :', 'male')
('Reached node with geater tahn 10K nbrs, sampling nbrs for :', 'united_states')
('Reached node with geater tahn 10K nbrs, sampling nbrs for :', 'male')
('Reached node with geater tahn 10K nbrs, sampling nbrs for :', 'united_states')
('Reached node with geater tahn 10K nbrs, sampling nbrs for :', 'male')
('Reached node with geater tahn 10K nbrs, sampling nbrs for :', 'male')
('Reached node with geater tahn 10K nbrs, sampling nbrs for :', 'male')
('Reached node with geater tahn 10K nbrs, sampling nbrs for :', 'united_states')
('Reached node with geater tahn 10K nbrs, sampling nbrs for :', 'male')
('Reached node with geater tahn 10K nbrs, sampling nbrs for :', 'male')
('Reached node with geater tahn 10K nbrs, sampling nbrs for :', 'united_states')
('Reached node with geater tahn 10K nbrs, sampling nbrs for :', 'male')
('Reached node with geater tahn 10K nbrs, sampling nbrs for :', 'male')
('Reached node with geater tahn 10K nbrs, sampling nbrs for :', 'united_states')
('Reached node with geater tahn 10K nbrs, sampling nbrs for :', 'male')
('Reached node with geater tahn 10K nbrs, sampling nbrs for :', 'male')
('Reached node with geater tahn 10K nbrs, sampling nbrs for :', 'male')
('Reached node with geater tahn 10K nbrs, sampling nbrs for :', 'united_states')
('Reached node with geater tahn 10K nbrs, sampling nbrs for :', 'male')
('Reached node with geater tahn 10K nbrs, sampling nbrs for :', 'united_states')
('Reached node with geater tahn 10K nbrs, sampling nbrs for :', 'united_states')
('Reached node with geater tahn 10K nbrs, sampling nbrs for :', 'united_states')
('Reached node with geater tahn 10K nbrs, sampling nbrs for :', 'male')
('Reached node with geater tahn 10K nbrs, sampling nbrs for :', 'united_states')
('Reached node with geater tahn 10K nbrs, sampling nbrs for :', 'male')
('Reached node with geater tahn 10K nbrs, sampling nbrs for :', 'united_states')
('Reached node with geater tahn 10K nbrs, sampling nbrs for :', 'male')
('Reached node with geater tahn 10K nbrs, sampling nbrs for :', 'male')
('Reached node with geater tahn 10K nbrs, sampling nbrs for :', 'male')
('Reached node with geater tahn 10K nbrs, sampling nbrs for :', 'male')
('Reached node with geater tahn 10K nbrs, sampling nbrs for :', 'male')
('Reached node with geater tahn 10K nbrs, sampling nbrs for :', 'male')
('Reached node with geater tahn 10K nbrs, sampling nbrs for :', 'male')
('Reached node with geater tahn 10K nbrs, sampling nbrs for :', 'male')
('Reached node with geater tahn 10K nbrs, sampling nbrs for :', 'united_states')
('Reached node with geater tahn 10K nbrs, sampling nbrs for :', 'united_states')
('Reached node with geater tahn 10K nbrs, sampling nbrs for :', 'male')
('Reached node with geater tahn 10K nbrs, sampling nbrs for :', 'male')
('Reached node with geater tahn 10K nbrs, sampling nbrs for :', 'male')
('Reached node with geater tahn 10K nbrs, sampling nbrs for :', 'male')
('Reached node with geater tahn 10K nbrs, sampling nbrs for :', 'united_states')
('Reached node with geater tahn 10K nbrs, sampling nbrs for :', 'male')
('Reached node with geater tahn 10K nbrs, sampling nbrs for :', 'male')
('Reached node with geater tahn 10K nbrs, sampling nbrs for :', 'united_states')
('Reached node with geater tahn 10K nbrs, sampling nbrs for :', 'united_states')
('Reached node with geater tahn 10K nbrs, sampling nbrs for :', 'united_states')
('Reached node with geater tahn 10K nbrs, sampling nbrs for :', 'male')
('Reached node with geater tahn 10K nbrs, sampling nbrs for :', 'united_states')
('Reached node with geater tahn 10K nbrs, sampling nbrs for :', 'male')
('Reached node with geater tahn 10K nbrs, sampling nbrs for :', 'male')
('Reached node with geater tahn 10K nbrs, sampling nbrs for :', 'male')
('Reached node with geater tahn 10K nbrs, sampling nbrs for :', 'male')
('Reached node with geater tahn 10K nbrs, sampling nbrs for :', 'male')
('Reached node with geater tahn 10K nbrs, sampling nbrs for :', 'male')
('Reached node with geater tahn 10K nbrs, sampling nbrs for :', 'united_states')
('Reached node with geater tahn 10K nbrs, sampling nbrs for :', 'male')
('Reached node with geater tahn 10K nbrs, sampling nbrs for :', 'male')
('Reached node with geater tahn 10K nbrs, sampling nbrs for :', 'male')
('Reached node with geater tahn 10K nbrs, sampling nbrs for :', 'united_states')
('Reached node with geater tahn 10K nbrs, sampling nbrs for :', 'united_states')
('Reached node with geater tahn 10K nbrs, sampling nbrs for :', 'male')
('Reached node with geater tahn 10K nbrs, sampling nbrs for :', 'united_states')
('Reached node with geater tahn 10K nbrs, sampling nbrs for :', 'united_states')
('Reached node with geater tahn 10K nbrs, sampling nbrs for :', 'united_states')
('Reached node with geater tahn 10K nbrs, sampling nbrs for :', 'male')
('Reached node with geater tahn 10K nbrs, sampling nbrs for :', 'male')
('Reached node with geater tahn 10K nbrs, sampling nbrs for :', 'male')
('Reached node with geater tahn 10K nbrs, sampling nbrs for :', 'male')
('Reached node with geater tahn 10K nbrs, sampling nbrs for :', 'united_states')
('Reached node with geater tahn 10K nbrs, sampling nbrs for :', 'male')
('Reached node with geater tahn 10K nbrs, sampling nbrs for :', 'united_states')
('Reached node with geater tahn 10K nbrs, sampling nbrs for :', 'male')
('Reached node with geater tahn 10K nbrs, sampling nbrs for :', 'male')
('Reached node with geater tahn 10K nbrs, sampling nbrs for :', 'united_states')
('Reached node with geater tahn 10K nbrs, sampling nbrs for :', 'male')
('Reached node with geater tahn 10K nbrs, sampling nbrs for :', 'male')
('Reached node with geater tahn 10K nbrs, sampling nbrs for :', 'united_states')
('Reached node with geater tahn 10K nbrs, sampling nbrs for :', 'male')
('Reached node with geater tahn 10K nbrs, sampling nbrs for :', 'male')
('Reached node with geater tahn 10K nbrs, sampling nbrs for :', 'male')
('Reached node with geater tahn 10K nbrs, sampling nbrs for :', 'united_states')
('Reached node with geater tahn 10K nbrs, sampling nbrs for :', 'male')
('Reached node with geater tahn 10K nbrs, sampling nbrs for :', 'united_states')
('Reached node with geater tahn 10K nbrs, sampling nbrs for :', 'united_states')
('Reached node with geater tahn 10K nbrs, sampling nbrs for :', 'united_states')
('Reached node with geater tahn 10K nbrs, sampling nbrs for :', 'united_states')
('Reached node with geater tahn 10K nbrs, sampling nbrs for :', 'male')
('Reached node with geater tahn 10K nbrs, sampling nbrs for :', 'united_states')
('Reached node with geater tahn 10K nbrs, sampling nbrs for :', 'united_states')
('Reached node with geater tahn 10K nbrs, sampling nbrs for :', 'male')
('Reached node with geater tahn 10K nbrs, sampling nbrs for :', 'male')
('Reached node with geater tahn 10K nbrs, sampling nbrs for :', 'male')
('Reached node with geater tahn 10K nbrs, sampling nbrs for :', 'male')
('Reached node with geater tahn 10K nbrs, sampling nbrs for :', 'male')
('Reached node with geater tahn 10K nbrs, sampling nbrs for :', 'united_states')
('Reached node with geater tahn 10K nbrs, sampling nbrs for :', 'male')
('Reached node with geater tahn 10K nbrs, sampling nbrs for :', 'united_states')
('Reached node with geater tahn 10K nbrs, sampling nbrs for :', 'male')
('Reached node with geater tahn 10K nbrs, sampling nbrs for :', 'united_states')
('Reached node with geater tahn 10K nbrs, sampling nbrs for :', 'male')
('Reached node with geater tahn 10K nbrs, sampling nbrs for :', 'male')
('Reached node with geater tahn 10K nbrs, sampling nbrs for :', 'male')
('Reached node with geater tahn 10K nbrs, sampling nbrs for :', 'male')
('Reached node with geater tahn 10K nbrs, sampling nbrs for :', 'male')
('Reached node with geater tahn 10K nbrs, sampling nbrs for :', 'united_states')
('Reached node with geater tahn 10K nbrs, sampling nbrs for :', 'male')
('Reached node with geater tahn 10K nbrs, sampling nbrs for :', 'united_states')
('Reached node with geater tahn 10K nbrs, sampling nbrs for :', 'united_states')
('Reached node with geater tahn 10K nbrs, sampling nbrs for :', 'male')
('Reached node with geater tahn 10K nbrs, sampling nbrs for :', 'united_states')
('Reached node with geater tahn 10K nbrs, sampling nbrs for :', 'male')
('Reached node with geater tahn 10K nbrs, sampling nbrs for :', 'male')
('Reached node with geater tahn 10K nbrs, sampling nbrs for :', 'male')
('Reached node with geater tahn 10K nbrs, sampling nbrs for :', 'male')
('Reached node with geater tahn 10K nbrs, sampling nbrs for :', 'united_states')
('Reached node with geater tahn 10K nbrs, sampling nbrs for :', 'male')
('Reached node with geater tahn 10K nbrs, sampling nbrs for :', 'male')
('Reached node with geater tahn 10K nbrs, sampling nbrs for :', 'male')
('Reached node with geater tahn 10K nbrs, sampling nbrs for :', 'united_states')
('Reached node with geater tahn 10K nbrs, sampling nbrs for :', 'united_states')
('Reached node with geater tahn 10K nbrs, sampling nbrs for :', 'united_states')
('Reached node with geater tahn 10K nbrs, sampling nbrs for :', 'male')
('Reached node with geater tahn 10K nbrs, sampling nbrs for :', 'male')
('Reached node with geater tahn 10K nbrs, sampling nbrs for :', 'united_states')
('Number of actual and predicted paths', 355, 355)
